{
  "versions": [
    {
      "version": "0.10.0",
      "port-version": 0,
      "git-tree": "937165b525108729b2e5a4b0fabd2555c61d5187"
    },
    {
      "version": "0.8.0",
      "port-version": 0,
      "git-tree": "679810969356eb07cd6c3a8a81e10ae6c00ed260"
    },
    {
      "version": "0.7.1",
      "port-version": 0,
      "git-tree": "1065a4cebb300740bc80e3d219ba4646bb2059a7"
    },
    {
      "version": "0.7.2",
      "port-version": 0,
      "git-tree": "3f6d09b77548920e425187b89ed953a6d77efc1d"
    }
  ]
}
